@startuml MER
' avoid problems with angled crows feet
skinparam linetype ortho


entity USER {
    *id : integer <<generated>> <<PK>>
    *created_at : timestamp <<generated>>
    *email : string
    *password : string
    username : string
}

entity PERSON {
    *id : integer <<generated>> <<PK>>
    *user_id : integer <<FK>>
    *created_at : timestamp <<generated>>
    *is_natural_person : boolean
    *is_legal_person : boolean
    is_customer : boolean
    is_provider : boolean
    is_employee : boolean
    website : url
    *cpf : string
    *rg : string
    *rg_date_of_issue : timestamp
}

entity NATURAL_PERSON {
    *id : integer <<generated>> <<PK>>
    *person_id : integer <<generated>> <<FK>>
    *first_name : string
    *last_name : string
    *birth_date : timestamp

}

entity LEGAL_PERSON {
    *id : integer <<generated>> <<PK>>
    *person_id : integer <<FK>>
    *cnpj : string
    *corporate_name : string
    *fantasy_name : string
}

entity EMPLOYEE {
    *id : integer <<generated>> <<PK>>
    *person_id : integer <<FK>>
    *registration_number : integer
    *admission_date : timestamp <<generated>>
    resignation_date : timestamp <<generated>>
    *cpts_number : string
    *cpts_serie : string
    *cpts_data_of_issue : timestamp
}

entity PERSON_ADDRESS {
    *id : integer <<generated>> <<PK>>
    *person_id : integer <<FK>>
    *address_id : integer <<FK>>
    *created_at : timestamp <<generated>>
    *type : string
}

entity ADDRESS {
    *id : integer <<generated>> <<PK>>
    *created_at : timestamp <<generated>>
    *cep : integer
    *state : string
    *city : string
    *neighborhood : string
    *street : string
    *number : integer
    complement : string
}

entity LOCATION {
    *id : integer <<generated>> <<PK>>
    *created_at : timestamp <<generated>>
    *latitude : string
    *longitude : string
}

entity ADDRESS_LOCATION {
    *id : integer <<generated>> <<PK>>
    *created_at : timestamp <<generated>>
    *address_id : integer <<FK>>
    *location_id : integer <<FK>>
}

entity CATEGORY {
    *id : integer <<generated>> <<PK>>
    *title : string
    *description : string
}

entity PRODUCT {
    *id : integer <<generated>> <<PK>>
    *category_id : integer <<FK>>
    *created_at : timestamp <<generated>>
    *expiration_date : timestamp
    *sku : integer
    *name : string
    description : string
    *price_cost : float
    *price_sale : float
    image : string
    *stock : integer
}

entity BATCH {
    *id : integer <<generated>> <<PK>>
    *created_at : timestamp <<generated>>
    *reason : string
}

entity BATCH_PRODUCT {
    *id : integer <<generated>> <<PK>>
    *created_at : timestamp <<generated>>
    *product_id : integer <<FK>>
    *batch_id : integer <<FK>>
}

USER |o..|| PERSON : are
PERSON ||--o| NATURAL_PERSON : is
PERSON ||--o| LEGAL_PERSON : is
PERSON ||--o| EMPLOYEE : is
PERSON ||--|{ PERSON_ADDRESS : contains
ADDRESS ||--|{ PERSON_ADDRESS : contains
ADDRESS_LOCATION |o--|| ADDRESS
ADDRESS_LOCATION |o--|| LOCATION
PRODUCT }o--|{ CATEGORY
PRODUCT }|--|| BATCH_PRODUCT : contains
BATCH }|--|| BATCH_PRODUCT : contains
@enduml
